reset

set key top left horizontal

set log y

#set xrange[0:1120]
#set yrange[2e-7:3e4]

tle=0

plot for [ID=0:57] './cubesat_kep_diffs.dat' index ID using 2:(abs($9)*100) every :::tle::tle  with lines title columnheader(1) lw .4

